…
## CV using modelr

``` r
cv_df = 
  crossv_mc(lidar_df, 100) 
```

``` r
cv_df |> pull(train) |> nth(1) |> as_tibble()
```

    ## # A tibble: 176 × 3
    ##    range logratio    id
    ##    <int>    <dbl> <int>
    ##  1   390  -0.0504     1
    ##  2   394  -0.0510     4
    ##  3   396  -0.0599     5
    ##  4   399  -0.0596     7
    ##  5   400  -0.0399     8
    ##  6   402  -0.0294     9
    ##  7   403  -0.0395    10
    ##  8   405  -0.0476    11
    ##  9   406  -0.0604    12
    ## 10   408  -0.0312    13
    ## # ℹ 166 more rows
…
